Predicting whale density from eDNA: a single-model walkthrough
…
Selection frequencies for the top 30 ASVs at ncomp = 4, eta ≈ 0.7. The dashed red line marks the 0.8 stability threshold.

Stable feature sets

extract_stable_sets() scans over all eta intervals and identifies configurations where the mean number of selected features satisfies the Meinshausen-Bühlmann false-positive bound. It infers the eta grid and mean selection counts directly from sel_freq_bm:

p <- sum(startsWith(names(whales_ex), "asv"))
candidates <- extract_stable_sets(sel_freq_bm, p = p)
candidates |> select(ncomp, eta.min, eta.max, n_stable)
#> # A tibble: 66 × 4
#>    ncomp eta.min eta.max n_stable
#>    <int>   <dbl>   <dbl>    <int>
#>  1     4   0.592   0.919       36
#>  2     4   0.592   0.925       36
#>  3     4   0.622   0.898       23
#>  4     4   0.622   0.906       23
#>  5     4   0.622   0.913       23
#>  6     4   0.622   0.919       23
#>  7     4   0.622   0.925       23
#>  8     4   0.650   0.881       19
#>  9     4   0.650   0.890       19
#> 10     4   0.650   0.898       19
#> # ℹ 56 more rows
…
